{
	"author": {
		"email": "Steve.Ball@composed.io",
		"name": "Steve Ball",
		"url": "www.composed.io"
	},
	"description": "malleable assertion library for LV2017",
	"devDependencies": {
		"@cs/ci": "^1.0.1"
	},
	"files": [
		"Source"
	],
	"homepage": "www.composed.io",
	"license": "MIT",
	"lvversion": ">=17",
	"name": "@cs/assertions",
	"repository": "https://bitbucket.org/composedsystems/composed-assertionshttps://bitbucket.org/composedsystems/composed-assertions",
	"version": "0.1.0"
}